Get Coaching History and Notable Recruits — bart_coach • toRvik
…
#>  9  2014     6 Duke      3 R64      ACC   26-9   13-5     126.  98.7  53.8  49.3
#> 10  2013     8 Duke      2 Elite E… ACC   30-6   14-4     118.  91.5  53.9  45.6
#> 11  2012    18 Duke      2 R64      ACC   27-7   13-3     116.  95.4  52.8  47.2
#> 12  2011     3 Duke      1 Sweet S… ACC   32-5   13-3     120.  90.0  53.7  44.5
#> 13  2010     1 Duke      1 CHAMPS   ACC   35-5   13-3     121.  87.9  50.6  43.8
#> 14  2009    12 Duke      2 Sweet S… ACC   30-7   11-5     117.  92.2  50.5  47.8
#> 15  2008     7 Duke      2 R32      ACC   28-6   13-3     116.  89.9  53.6  47.7
#> # … with 11 more variables: to_percent <dbl>, tod_percent <dbl>,
#> #   or_percent <dbl>, dr_percent <dbl>, ftr <dbl>, ftrd <dbl>,
#> #   ft_percent <dbl>, two_pct <dbl>, two_pct_d <dbl>, three_pct <dbl>,
#> #   three_pct_d <chr>, and abbreviated variable name ¹​conf_rec
#> # ℹ Use `colnames()` to see all variable names
#> 
#> [[2]]
#> # A tibble: 63 × 4
#>     year player            team  rec_rank
#>    <int> <chr>             <chr>    <dbl>
#>  1  2018 Marvin Bagley III Duke     100  
#>  2  2019 R.J. Barrett      Duke     100  
#>  3  2015 Jahlil Okafor     Duke     100  
#>  4  2022 Paolo Banchero    Duke      99.8
#>  5  2017 Harry Giles       Duke      99.8
#>  6  2019 Cam Reddish       Duke      99.8
#>  7  2012 Austin Rivers     Duke      99.8
#>  8  2011 Kyrie Irving      Duke      99.8
#>  9  2016 Brandon Ingram    Duke      99.6
#> 10  2014 Jabari Parker     Duke      99.4
#> # … with 53 more rows
#> # ℹ Use `print(n = ...)` to see more rows
…
