Get Conference Four Factor Statistics — bart_conf_factors • toRvik
…
 top
Splits by opponent T-Rank position,
adjusted for game location.

 start/end
Splits by date range
(YYYYMMDD).

    Examples

bart_conf_factors(type='nc')
#> # A tibble: 32 × 22
#>    conf  barthag rec     wins games adj_t adj_o off_efg off_to off_or off_ftr
#>    <chr>   <dbl> <chr>  <dbl> <dbl> <dbl> <dbl>   <dbl>  <dbl>  <dbl>   <dbl>
#>  1 B12     0.881 105–22   105   127  68.1  107.    53.1   18.8   33.9    31.4
#>  2 B10     0.834 108–31   108   139  69    109.    53.5   17.6   30.9    33.6
#>  3 SEC     0.820 129–47   129   176  69.8  106.    50.8   18.1   33.8    31.1
#>  4 BE      0.791 88–27     88   115  70.2  107.    51.7   18.5   32.2    33.4
#>  5 P12     0.748 82–41     82   123  69.2  105.    50.6   17.6   31.7    32.1
#>  6 ACC     0.746 106–53   106   159  68.5  106.    51.8   17.4   29.5    32.5
#>  7 Amer    0.718 82–42     82   124  68.3  104.    50.2   18.1   31.7    32  
#>  8 MWC     0.698 83–41     83   124  68    104.    51.6   17.9   26.5    31  
#>  9 WCC     0.675 81–51     81   132  69.4  103.    51.9   19.4   28.8    29.2
#> 10 A10     0.609 98–66     98   164  68.4  103.    51.4   18.4   28.5    30.9
#> # … with 22 more rows, and 11 more variables: adj_d <dbl>, def_efg <dbl>,
#> #   def_to <dbl>, def_or <dbl>, def_ftr <dbl>, wab <dbl>, year <dbl>,
#> #   venue <chr>, type <chr>, top <dbl>, quad <chr>
#> # ℹ Use `print(n = ...)` to see more rows, and `colnames()` to see all variable names
…
