Get Recruiting Rankings — player_recruiting_rankings • toRvik
…
  id
integer.

    Details

    Function pulls high school meta data and recruiting rankings for individual
players from 247Sports, ESPN, and Rivals back to 2008

    Examples

player_recruiting_rankings(year=2019, stars=5)
#> ── Recruiting Rankings ───────────────────────────────────────── toRvik 1.0.2 ──
#> ℹ Data updated: 2022-09-06 05:40:02 UTC
#> # A tibble: 28 × 31
#>    position player height weight team  conf  high_…¹ town  state tfs_c…² tfs_c…³
#>    <chr>    <chr>  <chr>   <dbl> <chr> <chr> <chr>   <chr> <chr>   <dbl>   <int>
#>  1 SG       RJ Ba… 6-7       202 Duke  ACC   Montve… Mont… Flor…   100.        5
#>  2 SF       Cam R… 6-8       218 Duke  ACC   Westto… Norr… Penn…    99.9       5
#>  3 SF       Nassi… 6-6       220 Nort… ACC   Orland… Orla… Flor…    99.9       5
#>  4 C        Bol B… 7-3       208 Oreg… P12   Findla… Hend… Neva…    99.9       5
#>  5 PF       Zion … 6-7       285 Duke  ACC   Sparta… Spar… Sout…    99.9       5
#>  6 C        Charl… 6-11      245 West… CUSA  St Ant… Loui… Kent…    99.8       5
#>  7 SG       Romeo… 6-6       215 Indi… B10   New Al… New … Indi…    99.8       5
#>  8 PF       EJ Mo… 6-10      225 Kent… SEC   Wheeler Mari… Geor…    99.7       5
#>  9 CG       Quent… 6-5       210 Kans… B12   Colleg… The … Texas    99.7       5
#> 10 PF       Simi … 6-10      240 Vand… SEC   Vermon… Saxt… Verm…    99.6       5
#> # … with 18 more rows, 20 more variables: tfs_comp_national <dbl>,
#> #   tfs_comp_position <dbl>, tfs_comp_state <dbl>, tfs_rating <dbl>,
#> #   tfs_star <int>, espn_rating <dbl>, espn_grade <dbl>, espn_rank <dbl>,
#> #   rivals_rating <dbl>, rivals_rank <dbl>, avg_rank <lgl>, num_offers <int>,
#> #   announce_date <chr>, tfs_cb <chr>, tfs_cb_odds <dbl>, tfs_cb_alt <chr>,
#> #   tfs_cb_alt_odds <dbl>, tfs_pid <int>, year <int>, id <int>, and abbreviated
#> #   variable names ¹​high_school, ²​tfs_comp_rating, ³​tfs_comp_star
…
