Get Transfer Portal — transfer_portal • toRvik
…
  sit
logical.

    Details

    Function pulls destination decisions by players in the transfer portal back
to 2012

    Examples

transfer_portal(to='Charlotte')
#> ── Transfer Portal ───────────────────────────────────────────── toRvik 1.1.0 ──
#> ℹ Data updated: 2022-09-13 04:53:57 UTC
#> # A tibble: 22 × 11
#>       id player       from  to    exp    year imm_e…¹ source from_d1 to_d1 sit  
#>    <int> <chr>        <chr> <chr> <chr> <int> <chr>   <chr>  <lgl>   <lgl> <lgl>
#>  1 72897 Lu'Cye Patt… Miss… Char… So     2023 NA      NA     TRUE    FALSE NA   
#>  2 45359 Perry Franc… Texa… Char… Sr     2022 Yes     NA     TRUE    TRUE  FALSE
#>  3 50945 Austin Butl… Holy… Char… Sr     2022 Yes     NA     TRUE    TRUE  FALSE
#>  4 51383 Musa Jallow  Ohio… Char… Jr     2022 Yes     NA     TRUE    TRUE  FALSE
#>  5 65717 Robert Bras… Syra… Char… Jr     2022 NA      NA     TRUE    TRUE  FALSE
#>  6 74703 Igor Milici… Virg… Char… Fr     2022 NA      NA     TRUE    FALSE FALSE
#>  7 66511 Jhery Matos  Dayt… Char… Sr     2021 Yes     NA     TRUE    TRUE  FALSE
#>  8 67757 Marvin Cann… Wash… Char… Sr     2021 Yes     NA     TRUE    TRUE  FALSE
#>  9 50906 Clyde Trapp  Clem… Char… Sr     2021 Yes     NA     TRUE    TRUE  FALSE
#> 10 73688 Montre' Gip… Tarl… Char… Sr     2021 Yes     NA     TRUE    FALSE FALSE
#> # … with 12 more rows, and abbreviated variable name ¹​imm_elig
…
